Capítulo 10 Análise de dados experimentais | Software R para avaliação de dados experimentais
…
CV(Amostra1)

[1] 21.85992

A distribuição dos dados pode ser determinada utilizando histograma de frequências, QQ-Plos e Box-Plot (conforme visto anteriormente). Estatísticas como a amplitude, erro padrão da média, intervalo de confiança, entre outros, podem ser obtidas com a função desc_stat()  do pacote metan29. Esta função permite computar as estatisticas para uma ou mais variáveis de um data frame ou um vetor de dados numéricos. Para um exemplo numérico, consulte a seção 7.3.1.

10.1.3 Resumindo dados com o pacote dplyr

Diversos verbos do pacote dplyr podem ser utilizados para resumir conjuntos de dados. Iniciaremos
com a função count() para contar valores que se repetem em uma determinada variável. Por exemplo, é possível identificar qual é o valor de APLA que mais se repete utilizando

library(metan)
count(maize, APLA, sort = TRUE)

# A tibble: 143 x 2
    APLA     n
   <dbl> <int>
 1  2.6     20
 2  2.8     20
 3  2.5     16
 4  2       14
 5  2.92    14
 6  2.1     13
 7  2.3     12
 8  2.7     12
 9  1.92    11
10  2.04    11
# ... with 133 more rows

Para identificar quais os valores distintos de APLA foram observados a função distinct() é usada.

distinct(maize, APLA)

# A tibble: 143 x 1
    APLA
   <dbl>
 1  2.45
 2  2.5 
 3  2.69
 4  2.8 
 5  2.62
 6  2.12
 7  3.15
 8  2.97
 9  3.1 
10  3.02
# ... with 133 more rows
…
Para calcular as estatísticas descritivas por mais de uma variável de agrupamento, precisamos passar dados agrupados para o argumento .data com a funçãogroup_by(). Vamos calcular a média, o erro padrão da média e o tamanho da amostra para as variáveis EP eEL para todas as combinações dos fatores AMB eHIB.

stats <- 
maize %>% 
  group_by(AMB, HIB) %>% 
  desc_stat(APLA, AIES, CESP,
            stats = c("mean, se, n"))
stats

# A tibble: 156 x 6
   AMB   HIB   variable  mean     se     n
   <chr> <chr> <chr>    <dbl>  <dbl> <dbl>
 1 A1    H1    AIES      1.68 0.0599    15
 2 A1    H1    APLA      2.72 0.0695    15
 3 A1    H1    CESP     15.4  0.451     15
 4 A1    H10   AIES      1.62 0.0506    15
 5 A1    H10   APLA      2.78 0.0716    15
 6 A1    H10   CESP     16.1  0.662     15
 7 A1    H11   AIES      1.58 0.0302    15
 8 A1    H11   APLA      2.75 0.0236    15
 9 A1    H11   CESP     16.6  0.332     15
10 A1    H12   AIES      1.54 0.0456    15
# ... with 146 more rows

Quando as estatísticas são calculadas para níveis de um fator, a função desc_wider() pode ser utilizada para converter uma estatística calculada em um conjunto de dados em formato wide, ou seja, variáveis nas colunas, fatores nas linhas com o valor da estatística escolhida preenchendo a tabela.

desc_wider(stats, se)

# A tibble: 52 x 5
   AMB   HIB     AIES   APLA  CESP
   <chr> <chr>  <dbl>  <dbl> <dbl>
 1 A1    H1    0.0599 0.0695 0.451
 2 A1    H10   0.0506 0.0716 0.662
 3 A1    H11   0.0302 0.0236 0.332
 4 A1    H12   0.0456 0.0582 0.498
 5 A1    H13   0.0562 0.05   0.295
 6 A1    H2    0.0327 0.0507 0.637
 7 A1    H3    0.0383 0.0323 0.543
 8 A1    H4    0.0448 0.043  0.437
 9 A1    H5    0.0315 0.0442 0.618
10 A1    H6    0.0447 0.0704 0.347
# ... with 42 more rows
…
O seguinte código é utilizado para instalar/carregar os pacotes necessários bem como para fazer o upload dos dados e armazenar no dataframe covar 

# dados
covar <- import("https://github.com/TiagoOlivoto/e-bookr/raw/master/data/data_R.xlsx",
                sheet = "COVAR")
# duas primeiras colunas como fator
covar <- to_factor(covar, 1:2)

covar_ggplot <- 
  covar %>%
  pivot_longer(names_to = "variable", values_to = "val", cols = c(NPUE, GE))
# Estrutura dos dados
covar_ggplot

# A tibble: 48 x 4
   TRAT  BLOCO variable   val
   <fct> <fct> <chr>    <dbl>
 1 T1    1     NPUE        28
 2 T1    1     GE         202
 3 T1    2     NPUE        22
 4 T1    2     GE         165
 5 T1    3     NPUE        27
 6 T1    3     GE         191
 7 T1    4     NPUE        19
 8 T1    4     GE         134
 9 T2    1     NPUE        23
10 T2    1     GE         145
# ... with 38 more rows
…
