Capítulo 14 Interação genótipo-vs-ambiente | Software R para avaliação de dados experimentais
…
ge_winners(data_ge2, ENV, GEN, resp = everything())
# # A tibble: 4 x 16
#   ENV   PH    EH    EP    EL    ED    CL    CD    CW    KW    NR    NKR   CDED 
#   <fct> <chr> <chr> <chr> <chr> <chr> <chr> <chr> <chr> <chr> <chr> <chr> <chr>
# 1 A1    H3    H1    H1    H6    H6    H8    H6    H6    H6    H2    H4    H8   
# 2 A2    H2    H1    H1    H6    H2    H2    H6    H2    H2    H2    H6    H13  
# 3 A3    H13   H13   H6    H4    H13   H6    H2    H7    H13   H13   H4    H6   
# 4 A4    H5    H5    H10   H7    H11   H5    H7    H5    H7    H11   H9    H10  
# # ... with 3 more variables: PERK <chr>, TKW <chr>, NKE <chr>

Ou obtenha a classificação dos genótipos em cada ambiente.

ge_winners(data_ge2, ENV, GEN, resp = everything (), type = "ranks")
# # A tibble: 52 x 16
#    ENV   PH    EH    EP    EL    ED    CL    CD    CW    KW    NR    NKR   CDED 
#    <fct> <chr> <chr> <chr> <chr> <chr> <chr> <chr> <chr> <chr> <chr> <chr> <chr>
#  1 A1    H3    H1    H1    H6    H6    H8    H6    H6    H6    H2    H4    H8   
#  2 A1    H9    H4    H10   H11   H13   H9    H11   H8    H13   H13   H5    H9   
#  3 A1    H4    H9    H4    H10   H10   H6    H9    H9    H9    H3    H6    H7   
#  4 A1    H5    H10   H7    H4    H9    H10   H10   H7    H2    H7    H11   H12  
#  5 A1    H2    H7    H12   H5    H8    H13   H5    H5    H1    H12   H3    H11  
#  6 A1    H10   H5    H11   H9    H2    H7    H4    H13   H4    H8    H2    H10  
#  7 A1    H7    H3    H6    H3    H3    H12   H8    H4    H3    H6    H1    H6   
#  8 A1    H13   H11   H9    H7    H1    H11   H3    H12   H8    H10   H13   H13  
#  9 A1    H6    H13   H13   H1    H7    H5    H7    H10   H5    H4    H8    H5   
# 10 A1    H11   H6    H5    H12   H4    H1    H1    H3    H10   H1    H12   H1   
# # ... with 42 more rows, and 3 more variables: PERK <chr>, TKW <chr>, NKE <chr>
…
Seis estatísticas são mostradas neste boxplot. A média (losango preto), a mediana (linha preta), as dobradiças inferior e superior que correspondem ao primeiro e terceiro quartis (percentis 25 e 75, respectivamente). O bigode superior se estende da dobradiça até o maior valor não mais que \(1,5 \times {IQR}\) a partir da dobradiça (em que IQR é o intervalo entre quartis). O bigode mais baixo se estende da dobradiça ao menor valor, no máximo \(1,5 \times {IQR}\) da dobradiça. Dados além do final dos bigodes são considerados pontos extremos. Se a condição violin = TRUE, uma plotagem de violino é adicionada junto com o boxplot. Um gráfico de violino é uma exibição compacta de uma distribuição contínua exibida da mesma maneira que um gráfico de caixa.

14.9.1 Valores estimados pelo modelo AMMI

Em nosso exemplo, o modelo AMMI2 foi o que apresentou o menor RMSPD, sendo então o mais indicado para estimar a variável GY. A estimativa considerando dois termos multiplicativos pode realizada utilizando a função predict(), tendo como argumentos o modelo AMMI ajustado (AMMI_model) e o número de termos multiplicativos considerados na estimação (naxis). 

predicted <- predict(AMMI_model, naxis = 2)
predicted$GY
# # A tibble: 140 x 8
#    ENV   GEN       Y RESIDUAL Ypred ResAMMI[,1] YpredAMMI[,1] AMMI0
#    <fct> <fct> <dbl>    <dbl> <dbl>       <dbl>         <dbl> <dbl>
#  1 E1    G1     2.37  -0.0843  2.45     0.0693           2.52  2.45
#  2 E1    G10    1.97  -0.344   2.32    -0.360            1.96  2.32
#  3 E1    G2     2.90   0.311   2.59     0.0735           2.66  2.59
#  4 E1    G3     2.89   0.0868  2.80    -0.00963          2.79  2.80
#  5 E1    G4     2.59   0.100   2.49     0.0144           2.50  2.49
#  6 E1    G5     2.19  -0.196   2.38    -0.0317           2.35  2.38
#  7 E1    G6     2.30  -0.0797  2.38     0.0238           2.40  2.38
#  8 E1    G7     2.77   0.186   2.59     0.186            2.77  2.59
#  9 E1    G8     2.90   0.0493  2.85     0.0852           2.94  2.85
# 10 E1    G9     2.33  -0.0307  2.36    -0.0515           2.31  2.36
# # ... with 130 more rows
…
Figure 14.4: Médias preditas para genótipos considerando um modelo misto

Imprimindo os BLUPs estimados para as combinações genótipo x ambiente (primeiras 10 entradas)

print(BLUP_model$GY$BLUPint)
# # A tibble: 420 x 7
#    ENV   GEN   REP     BLUPg  BLUPge `BLUPg+ge` Predicted
#    <fct> <fct> <fct>   <dbl>   <dbl>      <dbl>     <dbl>
#  1 E1    G1    1     -0.0575 -0.0621    -0.120       2.46
#  2 E1    G1    2     -0.0575 -0.0621    -0.120       2.44
#  3 E1    G1    3     -0.0575 -0.0621    -0.120       2.31
#  4 E1    G2    1      0.0570  0.207      0.264       2.84
#  5 E1    G2    2      0.0570  0.207      0.264       2.82
#  6 E1    G2    3      0.0570  0.207      0.264       2.69
#  7 E1    G3    1      0.229   0.0885     0.318       2.89
#  8 E1    G3    2      0.229   0.0885     0.318       2.87
#  9 E1    G3    3      0.229   0.0885     0.318       2.75
# 10 E1    G4    1     -0.0264  0.0601     0.0337      2.61
# # ... with 410 more rows
…
