Capítulo 7 Manipulação de dados | Software R para avaliação de dados experimentais
…
7.1 Adicionar novas variáveis

A função mutate()  é utilizada quando se deseja adicionar novas variáveis no conjunto de dados. Estas variáveis são funções de variáveis existentes. Como exemplo, vamos criar uma nova variável chamada PRE_2 no conjunto de dados maize, qual será a razão entre AIES e APLA. Note que a função adiciona a nova variável após a última variável origina e mantém todas as demais. Digamos que queríamos adicionar a nova variável criada após a variável REP, a seguinte abordagem com o pacote dplyr deve ser usada.

maize %>% 
  mutate(PRE_2 = AIES/APLA) %>%
  select(AMB, HIB, REP, PRE_2, everything())

# A tibble: 780 x 11
   AMB   HIB   REP   PRE_2  APLA  AIES  CESP  DIES  MGRA   MMG  NGRA
   <chr> <chr> <chr> <dbl> <dbl> <dbl> <dbl> <dbl> <dbl> <dbl> <dbl>
 1 A1    H1    I     0.976  2.45  2.39  16.9  52.1 228.   375.   609
 2 A1    H1    I     0.572  2.5   1.43  14.4  50.7 187.   437.   427
 3 A1    H1    I     0.565  2.69  1.52  16.5  54.7 230.   464.   497
 4 A1    H1    I     0.586  2.8   1.64  16.8  52.0 213.   408.   523
 5 A1    H1    I     0.592  2.62  1.55  15.9  51.6 224.   406.   551
 6 A1    H1    II    0.849  2.12  1.8   15    51.4 203.   383.   529
 7 A1    H1    II    0.565  3.15  1.78  10.9  41.9  75.2  256.   294
 8 A1    H1    II    0.620  2.97  1.84  15    53.4 204.   387.   528
 9 A1    H1    II    0.574  3.1   1.78  13.6  50.8 187.   348.   538
10 A1    H1    II    0.530  3.02  1.6   16.3  53.9 250.   430.   582
# … with 770 more rows

Com a função add_cols(), o mesmo resultado pode ser obtido com:

add_cols(maize,
         PRE_2 = AIES/APLA,
         .after = "REP")

# A tibble: 780 x 11
   AMB   HIB   REP   PRE_2  APLA  AIES  CESP  DIES  MGRA   MMG  NGRA
   <chr> <chr> <chr> <dbl> <dbl> <dbl> <dbl> <dbl> <dbl> <dbl> <dbl>
 1 A1    H1    I     0.976  2.45  2.39  16.9  52.1 228.   375.   609
 2 A1    H1    I     0.572  2.5   1.43  14.4  50.7 187.   437.   427
 3 A1    H1    I     0.565  2.69  1.52  16.5  54.7 230.   464.   497
 4 A1    H1    I     0.586  2.8   1.64  16.8  52.0 213.   408.   523
 5 A1    H1    I     0.592  2.62  1.55  15.9  51.6 224.   406.   551
 6 A1    H1    II    0.849  2.12  1.8   15    51.4 203.   383.   529
 7 A1    H1    II    0.565  3.15  1.78  10.9  41.9  75.2  256.   294
 8 A1    H1    II    0.620  2.97  1.84  15    53.4 204.   387.   528
 9 A1    H1    II    0.574  3.1   1.78  13.6  50.8 187.   348.   538
10 A1    H1    II    0.530  3.02  1.6   16.3  53.9 250.   430.   582
# … with 770 more rows

7.2 Concatenar colunas

A função concatetate() pode ser usada para concatenar várias colunas de um conjunto de dados.

concatenate(maize, AMB, HIB, REP)

# A tibble: 780 x 11
   AMB   HIB   REP    APLA  AIES  CESP  DIES  MGRA   MMG  NGRA new_var 
   <chr> <chr> <chr> <dbl> <dbl> <dbl> <dbl> <dbl> <dbl> <dbl> <chr>   
 1 A1    H1    I      2.45  2.39  16.9  52.1 228.   375.   609 A1_H1_I 
 2 A1    H1    I      2.5   1.43  14.4  50.7 187.   437.   427 A1_H1_I 
 3 A1    H1    I      2.69  1.52  16.5  54.7 230.   464.   497 A1_H1_I 
 4 A1    H1    I      2.8   1.64  16.8  52.0 213.   408.   523 A1_H1_I 
 5 A1    H1    I      2.62  1.55  15.9  51.6 224.   406.   551 A1_H1_I 
 6 A1    H1    II     2.12  1.8   15    51.4 203.   383.   529 A1_H1_II
 7 A1    H1    II     3.15  1.78  10.9  41.9  75.2  256.   294 A1_H1_II
 8 A1    H1    II     2.97  1.84  15    53.4 204.   387.   528 A1_H1_II
 9 A1    H1    II     3.1   1.78  13.6  50.8 187.   348.   538 A1_H1_II
10 A1    H1    II     3.02  1.6   16.3  53.9 250.   430.   582 A1_H1_II
# … with 770 more rows

Utilizando a função case_when()  é possível criar uma variável baseado em um argumento if() vetorizado. case_when() é particularmente útil dentro da função mutate() quando você quer criar uma nova variável que depende de uma combinação complexa de variáveis existentes. No exemplo abaixo, uma nova variável será criada, dependendo dos valores de APLA, AIES ou CESP

maize %>% 
  mutate(
    CASE = case_when(
      MGRA > 280 | APLA < 1.3 | NGRA > 820 ~  "Selecionar",
      APLA > 2.3 ~ "Alto",
      MGRA < 130 ~ "Pouco produtivo",
      TRUE ~ "Outro"
      )
    )

# A tibble: 780 x 11
   AMB   HIB   REP    APLA  AIES  CESP  DIES  MGRA   MMG  NGRA CASE 
   <chr> <chr> <chr> <dbl> <dbl> <dbl> <dbl> <dbl> <dbl> <dbl> <chr>
 1 A1    H1    I      2.45  2.39  16.9  52.1 228.   375.   609 Alto 
 2 A1    H1    I      2.5   1.43  14.4  50.7 187.   437.   427 Alto 
 3 A1    H1    I      2.69  1.52  16.5  54.7 230.   464.   497 Alto 
 4 A1    H1    I      2.8   1.64  16.8  52.0 213.   408.   523 Alto 
 5 A1    H1    I      2.62  1.55  15.9  51.6 224.   406.   551 Alto 
 6 A1    H1    II     2.12  1.8   15    51.4 203.   383.   529 Outro
 7 A1    H1    II     3.15  1.78  10.9  41.9  75.2  256.   294 Alto 
 8 A1    H1    II     2.97  1.84  15    53.4 204.   387.   528 Alto 
 9 A1    H1    II     3.1   1.78  13.6  50.8 187.   348.   538 Alto 
10 A1    H1    II     3.02  1.6   16.3  53.9 250.   430.   582 Alto 
# … with 770 more rows
…
Isto é aproximadamente equivalente ao seguinte código R base.

maize[maize$MGRA > 220 & maize$APLA < 2, ]

7.4 Resumir um conjunto de dados

A função count() pode ser utilizada para contar valores que se repetem em uma determinada variável. Por exemplo, é possível identificar qual é o valor de APLA que mais se repete utilizando

count(maize, APLA, sort = TRUE)

# A tibble: 143 x 2
    APLA     n
   <dbl> <int>
 1  2.6     20
 2  2.8     20
 3  2.5     16
 4  2       14
 5  2.92    14
 6  2.1     13
 7  2.3     12
 8  2.7     12
 9  1.92    11
10  2.04    11
# … with 133 more rows

Para identificar quais os valores distintos de APLA foram observados a função distinct().

distinct(maize, APLA)

# A tibble: 143 x 1
    APLA
   <dbl>
 1  2.45
 2  2.5 
 3  2.69
 4  2.8 
 5  2.62
 6  2.12
 7  3.15
 8  2.97
 9  3.1 
10  3.02
# … with 133 more rows
…
Isso NÃO funcionará:

stats = c("mean, "SE.mean", "CV", "max", "min")

stats = c("mean, SE.mean, CV, max, min ")

stats2 <-
  maize%>%
  split_factors(HIB)%>%
  desc_stat(contains("A"),
            stats = "all",
            verbose = FALSE)
stats2

# A tibble: 364 x 6
   HIB   Statistic    AIES    APLA     MGRA   NGRA
   <chr> <chr>       <dbl>   <dbl>    <dbl>  <dbl>
 1 H1    AV.dev     0.266   0.290   34.0     77.8 
 2 H1    CI.mean    0.0836  0.0888  11.3     28.2 
 3 H1    CV        21.5    13.1     23.9     21.6 
 4 H1    gm.mean    1.47    2.60   178.     493.  
 5 H1    hm.mean    1.43    2.57   170.     474.  
 6 H1    IQR        0.515   0.528   49.2     93.2 
 7 H1    Kurt      -0.591  -1.12    -0.0764   1.10
 8 H1    mad        0.378   0.408   35.6     76.4 
 9 H1    max        2.39    3.15   260.     768   
10 H1    mean       1.50    2.62   184.     507.  
# … with 354 more rows
…
7.5 Selecionar variáveis com base em seus nomes

A função select()  é utilizada para selecionar variáveis de um conjunto de dados. O seguinte código seleciona as variáveis MGRA e AIES do conjunto de dados

maize %>%
  select(MGRA, AIES)

# A tibble: 780 x 2
    MGRA  AIES
   <dbl> <dbl>
 1 228.   2.39
 2 187.   1.43
 3 230.   1.52
 4 213.   1.64
 5 224.   1.55
 6 203.   1.8 
 7  75.2  1.78
 8 204.   1.84
 9 187.   1.78
10 250.   1.6 
# … with 770 more rows

Para selecionar apenas as variáveis numéricas, vamos utilizar a função select_numeric_cols() do pacote metan. Variáveis não numéricas podem ser selecionadas com select_non_numeric_cols()

select_numeric_cols(maize)

# A tibble: 780 x 7
    APLA  AIES  CESP  DIES  MGRA   MMG  NGRA
   <dbl> <dbl> <dbl> <dbl> <dbl> <dbl> <dbl>
 1  2.45  2.39  16.9  52.1 228.   375.   609
 2  2.5   1.43  14.4  50.7 187.   437.   427
 3  2.69  1.52  16.5  54.7 230.   464.   497
 4  2.8   1.64  16.8  52.0 213.   408.   523
 5  2.62  1.55  15.9  51.6 224.   406.   551
 6  2.12  1.8   15    51.4 203.   383.   529
 7  3.15  1.78  10.9  41.9  75.2  256.   294
 8  2.97  1.84  15    53.4 204.   387.   528
 9  3.1   1.78  13.6  50.8 187.   348.   538
10  3.02  1.6   16.3  53.9 250.   430.   582
# … with 770 more rows

select_non_numeric_cols(maize)

# A tibble: 780 x 3
   AMB   HIB   REP  
   <chr> <chr> <chr>
 1 A1    H1    I    
 2 A1    H1    I    
 3 A1    H1    I    
 4 A1    H1    I    
 5 A1    H1    I    
 6 A1    H1    II   
 7 A1    H1    II   
 8 A1    H1    II   
 9 A1    H1    II   
10 A1    H1    II   
# … with 770 more rows

Se o objetivo é excluir as variáveis basta utilizar a função remove_cols(). No próximo exemplo, serão selecionadas todas as variáveis, exceto aquelas que contém A no nome.

maize %>%
  remove_cols(contains("A"))

# A tibble: 780 x 5
   HIB   REP    CESP  DIES   MMG
   <chr> <chr> <dbl> <dbl> <dbl>
 1 H1    I      16.9  52.1  375.
 2 H1    I      14.4  50.7  437.
 3 H1    I      16.5  54.7  464.
 4 H1    I      16.8  52.0  408.
 5 H1    I      15.9  51.6  406.
 6 H1    II     15    51.4  383.
 7 H1    II     10.9  41.9  256.
 8 H1    II     15    53.4  387.
 9 H1    II     13.6  50.8  348.
10 H1    II     16.3  53.9  430.
# … with 770 more rows
…
Exercício 3

Considerando o exemplo anterior, ordene a variável Rank em ordem decrescente.

Resposta

Ao combinar a função group_by() com arrange() é possível realizar o ordenamento para cada nível de um determinado fator. No exemplo abaixo, a variável APLA é ordenada de maneira crescente para cada híbrido.

maize %>%
  group_by(HIB) %>%
  arrange(APLA, .by_group = TRUE)

# A tibble: 780 x 10
# Groups:   HIB [13]
   AMB   HIB   REP    APLA  AIES  CESP  DIES  MGRA   MMG  NGRA
   <chr> <chr> <chr> <dbl> <dbl> <dbl> <dbl> <dbl> <dbl> <dbl>
 1 A3    H1    II     1.93  0.93  13    50.0 120.   276.   433
 2 A3    H1    I      2     1.05  19.9  53.3 253.   444.   570
 3 A3    H1    I      2.07  1.05  13.2  47.9 110.   293.   377
 4 A3    H1    II     2.08  0.94  12    47.6 103.   334.   309
 5 A3    H1    III    2.1   0.97  17.5  50.8 222.   423.   524
 6 A1    H1    II     2.12  1.8   15    51.4 203.   383.   529
 7 A3    H1    I      2.12  1.03  18.5  52.0 214.   382.   560
 8 A3    H1    III    2.12  0.96  15    56.8 174.   339.   512
 9 A3    H1    I      2.13  1.05  11.6  47.0  89.5  300.   298
10 A4    H1    I      2.13  1.1   12.8  47.6 144.   280.   516
# … with 770 more rows
…
7.12 Junções com filtragem de dados

Filtrando as linhas da tabela maize com base nas variáveis que combinam na tabela mean_h (neste caso, a coluna HIB) 

semi_join(maize, mean_h)

# A tibble: 300 x 10
   AMB   HIB   REP    APLA  AIES  CESP  DIES  MGRA   MMG  NGRA
   <chr> <chr> <chr> <dbl> <dbl> <dbl> <dbl> <dbl> <dbl> <dbl>
 1 A1    H1    I      2.45  2.39  16.9  52.1 228.   375.   609
 2 A1    H1    I      2.5   1.43  14.4  50.7 187.   437.   427
 3 A1    H1    I      2.69  1.52  16.5  54.7 230.   464.   497
 4 A1    H1    I      2.8   1.64  16.8  52.0 213.   408.   523
 5 A1    H1    I      2.62  1.55  15.9  51.6 224.   406.   551
 6 A1    H1    II     2.12  1.8   15    51.4 203.   383.   529
 7 A1    H1    II     3.15  1.78  10.9  41.9  75.2  256.   294
 8 A1    H1    II     2.97  1.84  15    53.4 204.   387.   528
 9 A1    H1    II     3.1   1.78  13.6  50.8 187.   348.   538
10 A1    H1    II     3.02  1.6   16.3  53.9 250.   430.   582
# … with 290 more rows

Filtrando as linhas da tabela maize com base nas variáveis que NÃO combinam na tabela mean_h (neste caso, a coluna HIB) 

anti_join(maize, mean_h)

# A tibble: 480 x 10
   AMB   HIB   REP    APLA  AIES  CESP  DIES  MGRA   MMG  NGRA
   <chr> <chr> <chr> <dbl> <dbl> <dbl> <dbl> <dbl> <dbl> <dbl>
 1 A1    H6    I      2.89  1.71  17.2  53.3  219.  384.   570
 2 A1    H6    I      2.91  1.47  17.1  57.3  280.  420.   665
 3 A1    H6    I      2.88  1.39  16.5  53.2  224.  358.   627
 4 A1    H6    I      2.89  1.73  16.7  54.5  243.  377.   644
 5 A1    H6    I      2.92  1.64  18    56.0  289.  393.   734
 6 A1    H6    II     1.97  1.63  17.1  54.7  230.  375.   614
 7 A1    H6    II     2.93  1.56  14    49.8  165.  307.   537
 8 A1    H6    II     2.97  1.85  17.2  53.8  255.  432.   591
 9 A1    H6    II     2.89  1.81  17.7  53.2  240.  468.   513
10 A1    H6    II     2.93  1.6   18    53.9  237.  432.   549
# … with 470 more rows
…
