Capítulo 12 Relações lineares entre variáveis | Software R para avaliação de dados experimentais
…
12.6 Correlação parcial

Em certos casos, o coeficiente de correlação linear simples pode nos levar a equívocos na interpretação da associação entre duas variáveis, pois este não considera a influência das demais variáveis contidas no conjunto de dados. O coeficiente de correlação parcial  é uma técnica baseada em operações matriciais que nos permite identificar a associação entre duas variáveis retirando-se os efeitos das demais variáveis presentes (Anderson 2003) Uma maneira generalizada para a estimativa do coeficiente de correlação parcial entre duas variáveis (i e j) é por meio da matriz de correlação simples que envolve estas duas variáveis e m outras variáveis das quais queremos retirar o efeito. A estimativa do coeficiente de correlação parcial entre i e j excluído o efeito de m outras variáveis é dado por:

\[
{r_{ij.m} = \frac{{- {a_{ij}}}}{{\sqrt {{a_{ii}}{a_{jj}}}}}}
\]

onde \(r_{ij.m}\) é o coeficiente de correlação parcial  entre as variável i e j, sem o efeito das outras m outras variáveis; \(a_{ij}\) é o elemento da ordem ij da inversa da matriz de correlação simples; \(a_{ii}\) e \(a_{jj}\) são os elementos de ordens ii e jj, respectivamente, da inversa da matriz de correlação simples.

As matrizes de coeficientes de correlação linear e parcial podem ser facilmente obtida utilizando a função lpcor()  do pacote metan. A entrada dos dados pode ser realizada de duas maneiras. (i) utilizando os dados com as observações de cada variável; ou (ii) utilizando uma matriz de correlação linear simples pré estimada. Em nosso exemplo, vamos utilziar os mesmos dados utilizados nas funções anteriores (datacor).

partial <- lpcor(datacor)
print(partial)
# # A tibble: 28 x 5
#    Pairs   linear partial      t          prob
#    <chr>    <dbl>   <dbl>  <dbl>         <dbl>
#  1 CD x CL  0.300  0.0767  0.936 0.351        
#  2 CD x CW  0.484  0.125   1.53  0.129        
#  3 CD x PH  0.315  0.0196  0.238 0.812        
#  4 CD x EH  0.281 -0.0258 -0.314 0.754        
#  5 CD x EP  0.175 -0.0121 -0.147 0.884        
#  6 CD x EL  0.912  0.893  24.1   0            
#  7 CD x ED  0.390  0.0108  0.131 0.896        
#  8 CL x CW  0.738  0.465   6.40  0.00000000198
#  9 CL x PH  0.325 -0.309  -3.95  0.000121     
# 10 CL x EH  0.397  0.256   3.22  0.00158      
# # ... with 18 more rows
…
